Solutions (and Beyond): ggplot2 – Chapter 7
…
# Creating a tbl_graph object
sw_graph <- tbl_graph(
  nodes = sw_nodes,
  edges = sw_links,
  node_key = "name",
  directed = FALSE
) 

sw_graph

# A tbl_graph: 110 nodes and 398 edges
#
# An undirected simple graph with 2 components
#
# A tibble: 110 × 4
   name firstname   value colour 
  <int> <chr>       <int> <chr>  
1     1 QUI-GON        61 #4f4fb1
2     2 NUTE GUNRAY    24 #808080
3     3 PK-4            3 #808080
4     4 TC-14           4 #808080
5     5 OBI-WAN       147 #48D1CC
6     6 DOFINE          3 #808080
# ℹ 104 more rows
#
# A tibble: 398 × 3
   from    to weightage
  <int> <int>     <int>
1     1     2         1
2     3     4         1
3     4     5         1
# ℹ 395 more rows
…
